{
    "index": {
        "download_fdroid": "F-Droid'i İndir",
        "introduction": "F-Droid, Android platformu için FOSS (Özgür ve Açık Kaynaklı Yazılım) uygulamalarının kurulabilir bir kataloğudur. İstemci; uygulamaları taramayı, kurmayı ve  güncellemeleri aygıtınızda izlemeyi kolaylaştırır.",
        "gpg_signature": "PGP İmzası",
        "screenshot": "F-Droid Android uygulaması ekran görüntüsü",
        "title": "F-Droid nedir?"
    },
    "navigation": {
        "about": "Hakkında",
        "contribute": "Katkıda Bulun",
        "forum": "Forum",
        "browse": "Göz At",
        "documentation": "Belgeler",
        "repomaker": "Repomaker",
        "tutorials": "Öğreticiler",
        "news": "Haberler",
        "issues": "Sorunlar"
    },
    "package": {
        "anti_features_warning": "Bu uygulama sevmeyebileceğiniz özellikler içerir.",
        "website": "Web Sitesi",
        "permissions": "İzinler",
        "donate": "Bağış Yap",
        "liberapay": "Liberapay",
        "technical_info": "Teknik bilgi",
        "build_metadata": "İnşa Üst Verisi",
        "author": "Yazar",
        "new_in_version": "Sürümdeki yenilikler [latest_version]",
        "version_info": "<b>Sürüm [package_version]</b> ([package_version_code]) - [package_added_date] tarihinde eklendi",
        "changelog": "Değişiklik Günlüğü",
        "issue_tracker": "Sorun İzleyici",
        "signed_by_developer": "Özgün geliştirici tarafından inşa edildi ve imzalandı.",
        "gpg_signature": "PGP İmzası",
        "signed_by_fdroid": "F-Droid tarafından inşa edildi ve imzalandı, ve <a href=\"[source_code_url]\">bu kaynak tar dosyasına</a> uygunluğu garanti edilir.",
        "packages": "Paketler",
        "download": "[file_extension] İndir",
        "license": "Lisans",
        "minimum_android_version": "Bu sürüm Android [android_version] veya daha yenisini gerektirir.",
        "suggest_downloading_via_fdroid": "Aşağıdaki APK indirmeleri size seçenek sunsa da, bu şekilde kurarsanız güncelleme bildirimlerini almayacağınızı ve bunun daha güvensiz bir indirme yolu olduğunu unutmayın. F-Droid istemcisini kurmanızı ve onu kullanmanızı öneriyoruz.",
        "source_code": "Kaynak Kodu",
        "flattr": "Flattr",
        "anti_features": "Anti-Özellikler",
        "anti_features_warning": "Bu uygulama beğenmeyebileceğiniz özelliklere sahiptir"
    },
    "sidebars": {
        "latest_packages": {
            "heading": "En Son Uygulamalar"
        },
        "news": {
            "heading": "Haberler"
        },
        "search": {
            "noscript": "JavaScript'in etkinleştirilmesini gerektirir",
            "search": "Ara",
            "heading": "Uygulamaları Bul"
        },
        "donate": {
            "bank_transfer_name": "Adı",
            "bitcoin_alt": "Bitcoin ile bağış yap",
            "powered_by_donations": "F-Droid bağışlarınızla güç bulur!",
            "via_bank_transfer": "Banka Havalesi",
            "litecoin_alt": "Litecoin ile Bağış Yap",
            "flattr_alt": "Flattr ile Bağış Yap",
            "paypal_alt": "PayPal ile Bağış Yap",
            "liberapay_alt": "Liberapay ile Bağış Yap",
            "heading": "Bağış Yap",
            "hellotux": "👕 Tişörtler 👕 şuradan",
            "hellotux_alt": "HELLOTUX",
            "hellotux_donation": "F-Droid, satılan tişört başına 3 € alacak."
        },
        "last_updated": {
            "heading": "Son Güncelleme"
        }
    }
}
