{
    "index": {
        "download_fdroid": "ཨེཕ་རོཌ་ཕབ་ལེན་བྱེད།", 
        "gpg_signature": "PGP མིང་རྟགས།", 
        "introduction": "ཨེཕ་རོཌ་ནི་འགྲིག་བཅུག་བྱེད་ཐུབ་པའི་ ཕོས་(རིན་མེད་དང་ཕྱི་གསལ་ནང་གསལ་གྱི་ཨང་རྟགས་མཉེན་ཆས་) དང་ཨེན་ཀྲོཌ་བབས་སྟེགས་ཆེད་དུ་བཟོས་པའི་མཉེན་ཆས་ཤིག་རེད། མཉེན་ཆས་འདིས་ཁྱེད་རང་གི་ཡོ་བྱད་སྒང་ལ་ལྟ་བ་དང་། འགྲིག་བཅུག གསར་བསྒྱུར་བྱེད་དགོས་པ་རྣམས་རྗེས་དེད་གཏོང་བ་སོགས་དཀའ་ཚེགས་མེད་པའི་ཐོག་ནས་བྱེད་ཐུབ།", 
        "screenshot": "ཨེཕ་རོཌ་ཨེན་ཀྲོཌ་མཉེན་ཆས་དྲྭ་ཤེལ་པར་ལེན།", 
        "title": "ཨེཕ་རོཌ་ཟེར་ན་གང་རེད།"
    }, 
    "navigation": {
        "about": "སྐོར།", 
        "browse": "ལྟ་བ།", 
        "contribute": "མཐུན་འགྱུར།", 
        "documentation": "ཡིག་ཆ།", 
        "forum": "གླེང་སྟེགས།", 
        "issues": "གནད་དོན།", 
        "news": "གསར་འགྱུར།", 
        "repomaker": "རེ་པོ་མེ་ཀར།"
    }, 
    "package": {
        "anti_features_warning": "མཉེན་ཆས་འདིར་ཁྱེད་རང་གིས་དགའ་མོས་མེད་པའི་ཁྱད་ཆོས་ཀྱང་ཡོད་སྲིད།",
        "author": "རྩོམ་པ་པོ།", 
        "build_metadata": "རྒྱབ་ལྗོངས་ཡིག་ཆ་བཟོ་སྐྲུན།", 
        "changelog": "འགྱུརལྡོག་ཕྱིན་པའི་ཐོ་གཞུང་།", 
        "donate": "ཞལ་འདེབས།", 
        "download": "[file_extension]ཕབ་ལེན་བྱས་ཟིན།", 
        "flattr": "ཞལ་འདེབས་འབུལ་ཡུལ་ཕེ་ལེ་ཊར།", 
        "gpg_signature": "PGP མིང་རྟགས།", 
        "issue_tracker": "གནད་དོན་རྗེད་དེད་གཏོང་བ།", 
        "license": "ཆོག་མཆན་ལག་ཁྱེར།", 
        "minimum_android_version": "ཐོན་རིམ་འདི་ལ་ཨེན་ཀྲོཌ་དགོས། [android_version] ཡང་ན་དེ་ལས་ཐོན་གསར་བ།", 
        "new_in_version": "ཐོན་རིམ་གསར་པ། [latest_version]", 
        "packages": "ཐུམ་སྒྲིལ་ཁག", 
        "permissions": "ཆོག་མཆན་ཁག", 
        "signed_by_developer": "འདི་ནི་བཟོ་མཁན་ངོ་མས་བཟོས་པ་དང་མིང་རྟགས་བཀོད་ཡོད།", 
        "signed_by_fdroid": "ཨེཕ་རོཌ་གིས་བཟོས་པ་དང་མིང་རྟགས་བཀོད་ཡོད།<a href=\"[source_code_url]\"> 1this source tarball</a> 2.", 
        "source_code": "འབྱུང་ཁུངས་་ཨང་རྟགས།", 
        "suggest_downloading_via_fdroid": "APKཕབ་ལེན་བྱས་རྒྱུའི་གདམ་ཀ་སྤྲད་ཡོད་ནའང་འགྲིག་བཅུག་བྱེད་པའི་སྐབས་ལ་གསར་བསྒྱུར་ཡོད་པའི་བརྡ་ལན་སྤྲད་ཀྱི་མེད་པ་དེ་ཁྱེད་ཀྱིས་ཤེས་དགོས་པ་དང་། ཕབ་ལེན་འདི་ནི་བདེ་འཇགས་ཞན་པའང་ཡོད། དེ་འདྲ་སོང་ཙང་ང་ཚོས་ཁྱེད་རང་ཨེཕ་རོཌ་མཉེན་ཆས་འགྲིག་བཅུག་བྱས་ནས་བེད་སྤྱོད་བྱེད་རྒྱུར་ངོ་སྤྲོད་ཞུ་རྒྱུ་ཡིན།", 
        "technical_info": "འཕྲུལ་ཆས་དང་འབྲེལ་བའི་གནད་དོན།", 
        "version_info": "<b> 1ཐོན་རིམ་ [package_version]</b> 2 ([package_version_code]) - ཁ་སྣོན་བྱེད་པ་ཡིན་[package_added_date]", 
        "website": "དྲྭ་ཚིགས།"
    }, 
    "sidebars": {
        "donate": {
            "bank_transfer_name": "མིང་།", 
            "bitcoin_alt": "Bitcoin དྲྭ་དངུལ་རྒྱུད་དེ་ཞལ་འདེབས་གནང་རོགས།", 
            "flattr_alt": "Flattr རྒྱུད་དེ་ཞལ་འདེབས་གནང་རོགས།", 
            "heading": "ཞལ་འདེབས།", 
            "paypal_alt": "Paypal་རྒྱུད་དེ་ཞལ་འདེབས་གནང་རོགས།", 
            "powered_by_donations": "ཁྱེད་རང་གི་ཞལ་འདེབས་ཀྱི་ནུས་པ་ལ་བརྟེན་ནས་ཨེཕ་རོཌ་གནས་ཡོད།!", 
            "via_bank_transfer": "དངུལ་ཁང་རྒྱུད་དེ་གཏོང་བ།"
        }, 
        "last_updated": {
            "heading": "ཐ་མའི་གསར་བསྒྱུར།"
        }, 
        "latest_packages": {
            "heading": "མཉེན་ཆས་གསར་ཤོས་ཁག"
        }, 
        "news": {
            "heading": "གསར་འགྱུར་ཁག"
        }, 
        "search": {
            "heading": "མཉེན་ཆས་རྣམས་འཚོལ།", 
            "noscript": "JavaScript སྒོ་ཕྱེས་དགོས།"
        }
    }
}