{
    "index": {
        "download_fdroid": "Deskargatu F-Droid",
        "introduction": "F-Droid instalatu daitekeen Android plataformarako aplikazio libreen edo FOSS (Free and Open Source Software) katalogo bat da. Bezero honek zure gailuan aplikazio hauek erraz bilatu, instalatu eta eguneratzea ahalbidetzen dizu.",
        "gpg_signature": "PGP sinadura",
        "screenshot": "Android-erako F-Droid-en pantaila-argazkiak",
        "title": "Zer da F-Droid?"
    },
    "navigation": {
        "about": "Honi buruz",
        "contribute": "Hartu parte",
        "forum": "Foroa",
        "browse": "Arakatu",
        "documentation": "Dokumentuak",
        "repomaker": "Repomaker",
        "tutorials": "Tutorialak",
        "news": "Berriak",
        "issues": "Arazoak"
    },
    "package": {
        "website": "Webgunea",
        "permissions": "Baimenak",
        "donate": "Dohaintza",
        "liberapay": "Liberapay",
        "technical_info": "Informazio teknikoa",
        "build_metadata": "Konpilazioaren metadatuak",
        "author": "Egilea",
        "new_in_version": "[latest_version] bertsioan berria",
        "version_info": "<b>[package_version] bertsioa</b> ([package_version_code]) - Gehitze data: [package_added_date]",
        "changelog": "Aldaketa-egunkaria",
        "issue_tracker": "Akats kudeatzailea",
        "signed_by_developer": "Jatorrizko garatzaileak sortu eta sinatutakoa da.",
        "gpg_signature": "PGP sinadura",
        "signed_by_fdroid": "F-Droid proiektuak sortu eta sinatutakoa da, eta <a href=\"[source_code_url]\">iturburuaren tarball honekin</a> bat datorrela bermatzen dugu.",
        "packages": "Paketeak",
        "download": "Deskargatu [file_extension]",
        "license": "Lizentzia",
        "minimum_android_version": "Bertsio honek Android [android_version] edo berriagoa behar du.",
        "suggest_downloading_via_fdroid": "Behean APK fitxategiak deskargatzeko aukera ematen bazaizu ere, jakin hauek zuzenean instalatuz gero ez duzula eguneraketen berri jasoko eta deskargatzeko modu ez seguruagoa dela. F-Droid bezeroa instalatu eta berau erabiltzea aholkatzen dizugu.",
        "source_code": "Iturburu-kodea",
        "flattr": "Flattr",
        "anti_features": "Ezaugarri zalantzagarriak",
        "anti_features_warning": "Aplikazio honek agian gustuko ez dituzun ezaugarriak ditu"
    },
    "sidebars": {
        "latest_packages": {
            "heading": "Aplikazio berriak"
        },
        "news": {
            "heading": "Berriak"
        },
        "search": {
            "noscript": "Javascript aktibatuta izatea behar du",
            "search": "Bilatu",
            "heading": "Bilatu aplikazioak"
        },
        "donate": {
            "bank_transfer_name": "Izena",
            "bitcoin_alt": "Bitcoin",
            "powered_by_donations": "F-Droid zure dohaintzei esker dabil!",
            "via_bank_transfer": "Banku transferentzia",
            "litecoin_alt": "Litecoin bidezko dohaintza",
            "flattr_alt": "Flattr",
            "paypal_alt": "PayPal bidezko dohaintza",
            "liberapay_alt": "Liberapay",
            "heading": "Dohaintza",
            "hellotux": "👕 Kamisetak 👕 salgai",
            "hellotux_alt": "HELLOTUX",
            "hellotux_donation": "F-Droidek 3€ jasoko ditu saldutako kamiseta bakoitzeko."
        },
        "last_updated": {
            "heading": "Eguneratutako azkenak"
        }
    }
}
